timer/simulation/qsim/timer_teste.msim.vcd
$comment
	File created using the following command:
		vcd file timer_teste.msim.vcd -direction
$end
$date
	Sun Nov 10 13:10:45 2019
$end
$version
	ModelSim Version 10.1d
$end
$timescale
	1ps
$end
$scope module timer_teste_vlg_vec_tst $end
$var reg 1 ! clk $end
$var reg 1 " clr $end
$var reg 1 # enable $end
$var reg 1 $ load $end
$var reg 4 % M [3:0] $end
$var wire 1 & Q $end
$var wire 1 ' Z [3] $end
$var wire 1 ( Z [2] $end
$var wire 1 ) Z [1] $end
$var wire 1 * Z [0] $end
$var wire 1 + sampler $end
$scope module i1 $end
$var wire 1 , gnd $end
$var wire 1 - vcc $end
$var wire 1 . unknown $end
$var tri1 1 / devclrn $end
$var tri1 1 0 devpor $end
$var tri1 1 1 devoe $end
$var wire 1 2 clk~combout $end
$var wire 1 3 enable~combout $end
$var wire 1 4 t2|s[0]~0_combout $end
$var wire 1 5 clr~combout $end
$var wire 1 6 load~combout $end
$var wire 1 7 t4|Equal0~0_wirecell_combout $end
$var wire 1 8 t4|a2|s[0]~0_combout $end
$var wire 1 9 t4|a4|s[0]~_wirecell_combout $end
$var wire 1 : t4|a2|s[0]~4_combout $end
$var wire 1 ; t1|gen:1:uut|s~0_combout $end
$var wire 1 < t4|a2|s[1]~1_combout $end
$var wire 1 = t4|a5|gen:1:uut|s~0_combout $end
$var wire 1 > t1|gen:2:uut|s~0_combout $end
$var wire 1 ? t4|a2|s[2]~2_combout $end
$var wire 1 @ t4|a5|gen:2:uut|s~0_combout $end
$var wire 1 A t1|gen:3:uut|s~0_combout $end
$var wire 1 B orToReg~combout $end
$var wire 1 C t4|a2|s[3]~3_combout $end
$var wire 1 D t4|a5|gen:3:uut|s~0_combout $end
$var wire 1 E t4|Equal0~0_combout $end
$var wire 1 F t4|a2|s [3] $end
$var wire 1 G t4|a2|s [2] $end
$var wire 1 H t4|a2|s [1] $end
$var wire 1 I t4|a2|s [0] $end
$var wire 1 J t4|a4|s [3] $end
$var wire 1 K t4|a4|s [2] $end
$var wire 1 L t4|a4|s [1] $end
$var wire 1 M t4|a4|s [0] $end
$var wire 1 N t2|s [3] $end
$var wire 1 O t2|s [2] $end
$var wire 1 P t2|s [1] $end
$var wire 1 Q t2|s [0] $end
$var wire 1 R M~combout [3] $end
$var wire 1 S M~combout [2] $end
$var wire 1 T M~combout [1] $end
$var wire 1 U M~combout [0] $end
$upscope $end
$upscope $end
$enddefinitions $end
#0
$dumpvars
0!
0"
1#
1$
b1111 %
1&
0*
0)
0(
0'
x+
0,
1-
x.
1/
10
11
02
13
04
05
16
17
08
19
0:
1;
0<
1=
1>
0?
1@
1A
1B
0C
1D
0E
0I
0H
0G
0F
0M
0L
0K
0J
0Q
0P
0O
0N
1U
1T
1S
1R
$end
#5000
1!
12
0+
1N
1O
1P
1C
1?
1<
#10000
0!
02
1+
#15000
1!
12
0+
1F
1G
1H
1E
1'
1(
1)
07
0&
#20000
0!
02
1+
#25000
1!
12
0+
1J
1K
1L
0=
#30000
0!
02
1+
#35000
1!
12
0+
#40000
0!
02
1+
#45000
1!
12
0+
#50000
0$
b111 %
b11 %
b1 %
b0 %
0!
06
0U
0T
0S
0R
02
1+
0B
1:
14
#55000
1!
12
0+
0H
1I
0<
18
0)
1*
#60000
0!
02
1+
#65000
1!
12
0+
0L
1M
09
#70000
0!
02
1+
#75000
1!
12
0+
0I
08
0*
#80000
0!
02
1+
#85000
1!
12
0+
0M
0@
1=
19
#90000
0!
02
1+
#95000
1!
12
0+
0G
1H
1I
0?
1<
18
0(
1)
1*
#100000
0!
02
1+
#105000
1!
12
0+
0K
1L
1M
09
#110000
0!
02
1+
#115000
1!
12
0+
0I
08
0*
#120000
0!
02
1+
#125000
1!
12
0+
0M
0=
19
#130000
0!
02
1+
#135000
1!
12
0+
0H
1I
0<
18
0)
1*
#140000
0!
02
1+
#145000
1!
12
0+
0L
1M
09
#150000
0!
02
1+
#155000
1!
12
0+
0I
08
0*
#160000
0!
02
1+
#165000
1!
12
0+
0M
0D
1@
1=
19
#170000
0!
02
1+
#175000
1!
12
0+
0F
1G
1H
1I
0C
1?
1<
18
0'
1(
1)
1*
#180000
0!
02
1+
#185000
1!
12
0+
0J
1K
1L
1M
09
#190000
0!
02
1+
#195000
1!
12
0+
0I
08
0*
#200000
0!
02
1+
#205000
1!
12
0+
0M
0=
19
#210000
0!
02
1+
#215000
1!
12
0+
0H
1I
0<
18
0)
1*
#220000
0!
02
1+
#225000
1!
12
0+
0L
1M
09
#230000
0!
02
1+
#235000
1!
12
0+
0I
08
0*
#240000
0!
02
1+
#245000
1!
12
0+
0M
0@
1=
19
#250000
0!
02
1+
#255000
1!
12
0+
0G
1H
1I
0?
1<
18
0(
1)
1*
#260000
0!
02
1+
#265000
1!
12
0+
0K
1L
1M
09
#270000
0!
02
1+
#275000
1!
12
0+
0I
08
0*
#280000
0!
02
1+
#285000
1!
12
0+
0M
0=
19
#290000
0!
02
1+
#295000
1!
12
0+
0H
1I
0<
18
0)
1*
#300000
0!
02
1+
#305000
1!
12
0+
0L
1M
09
#310000
0!
02
1+
#315000
1!
12
0+
0I
0E
08
0*
1B
0:
17
1&
1C
1?
1<
#320000
0!
02
1+
#325000
1!
12
0+
1F
1G
1H
1E
1'
1(
1)
0B
1:
07
0&
#330000
0!
02
1+
#335000
1!
12
0+
0F
1J
0G
1K
0H
1L
0M
0E
0C
1D
0?
1@
0<
19
0'
0(
0)
1B
0:
17
1&
1C
1?
1<
#340000
0!
02
1+
#345000
1!
12
0+
1F
1G
1H
1E
1'
1(
1)
0B
1:
07
0&
#350000
0!
02
1+
#355000
1!
12
0+
0H
1I
0<
18
0)
1*
#360000
0!
02
1+
#365000
1!
12
0+
0L
1M
09
#370000
0!
02
1+
#375000
1!
12
0+
0I
08
0*
#380000
0!
02
1+
#385000
1!
12
0+
0M
0@
1=
19
#390000
0!
02
1+
#395000
1!
12
0+
0G
1H
1I
0?
1<
18
0(
1)
1*
#400000
0!
02
1+
#405000
1!
12
0+
0K
1L
1M
09
#410000
0!
02
1+
#415000
1!
12
0+
0I
08
0*
#420000
0!
02
1+
#425000
1!
12
0+
0M
0=
19
#430000
0!
02
1+
#435000
1!
12
0+
0H
1I
0<
18
0)
1*
#440000
0!
02
1+
#445000
1!
12
0+
0L
1M
09
#450000
0!
02
1+
#455000
1!
12
0+
0I
08
0*
#460000
0!
02
1+
#465000
1!
12
0+
0M
0D
1@
1=
19
#470000
0!
02
1+
#475000
1!
12
0+
0F
1G
1H
1I
0C
1?
1<
18
0'
1(
1)
1*
#480000
0!
02
1+
#485000
1!
12
0+
0J
1K
1L
1M
09
#490000
0!
02
1+
#495000
1!
12
0+
0I
08
0*
#500000
0!
02
1+
#505000
1!
12
0+
0M
0=
19
#510000
0!
02
1+
#515000
1!
12
0+
0H
1I
0<
18
0)
1*
#520000
0!
02
1+
#525000
1!
12
0+
0L
1M
09
#530000
0!
02
1+
#535000
1!
12
0+
0I
08
0*
#540000
0!
02
1+
#545000
1!
12
0+
0M
0@
1=
19
#550000
0!
02
1+
#555000
1!
12
0+
0G
1H
1I
0?
1<
18
0(
1)
1*
#560000
0!
02
1+
#565000
1!
12
0+
0K
1L
1M
09
#570000
0!
02
1+
#575000
1!
12
0+
0I
08
0*
#580000
0!
02
1+
#585000
1!
12
0+
0M
0=
19
#590000
0!
02
1+
#595000
1!
12
0+
0H
1I
0<
18
0)
1*
#600000
0!
02
1+
#605000
1!
12
0+
0L
1M
09
#610000
0!
02
1+
#615000
1!
12
0+
0I
0E
08
0*
1B
0:
17
1&
1C
1?
1<
#620000
0!
02
1+
#625000
1!
12
0+
1F
1G
1H
1E
1'
1(
1)
0B
1:
07
0&
#630000
0!
02
1+
#635000
1!
12
0+
0F
1J
0G
1K
0H
1L
0M
0E
0C
1D
0?
1@
0<
19
0'
0(
0)
1B
0:
17
1&
1C
1?
1<
#640000
0!
02
1+
#645000
1!
12
0+
1F
1G
1H
1E
1'
1(
1)
0B
1:
07
0&
#650000
0!
02
1+
#655000
1!
12
0+
0H
1I
0<
18
0)
1*
#660000
0!
02
1+
#665000
1!
12
0+
0L
1M
09
#670000
0!
02
1+
#675000
1!
12
0+
0I
08
0*
#680000
0!
02
1+
#685000
1!
12
0+
0M
0@
1=
19
#690000
0!
02
1+
#695000
1!
12
0+
0G
1H
1I
0?
1<
18
0(
1)
1*
#700000
0!
02
1+
#705000
1!
12
0+
0K
1L
1M
09
#710000
0!
02
1+
#715000
1!
12
0+
0I
08
0*
#720000
0!
02
1+
#725000
1!
12
0+
0M
0=
19
#730000
0!
02
1+
#735000
1!
12
0+
0H
1I
0<
18
0)
1*
#740000
0!
02
1+
#745000
1!
12
0+
0L
1M
09
#750000
0!
02
1+
#755000
1!
12
0+
0I
08
0*
#760000
0!
02
1+
#765000
1!
12
0+
0M
0D
1@
1=
19
#770000
0!
02
1+
#775000
1!
12
0+
0F
1G
1H
1I
0C
1?
1<
18
0'
1(
1)
1*
#780000
0!
02
1+
#785000
1!
12
0+
0J
1K
1L
1M
09
#790000
0!
02
1+
#795000
1!
12
0+
0I
08
0*
#800000
0!
02
1+
#805000
1!
12
0+
0M
0=
19
#810000
0!
02
1+
#815000
1!
12
0+
0H
1I
0<
18
0)
1*
#820000
0!
02
1+
#825000
1!
12
0+
0L
1M
09
#830000
0!
02
1+
#835000
1!
12
0+
0I
08
0*
#840000
0!
02
1+
#845000
1!
12
0+
0M
0@
1=
19
#850000
0!
02
1+
#855000
1!
12
0+
0G
1H
1I
0?
1<
18
0(
1)
1*
#860000
0!
02
1+
#865000
1!
12
0+
0K
1L
1M
09
#870000
0!
02
1+
#875000
1!
12
0+
0I
08
0*
#880000
0!
02
1+
#885000
1!
12
0+
0M
0=
19
#890000
0!
02
1+
#895000
1!
12
0+
0H
1I
0<
18
0)
1*
#900000
0!
02
1+
#905000
1!
12
0+
0L
1M
09
#910000
0!
02
1+
#915000
1!
12
0+
0I
0E
08
0*
1B
0:
17
1&
1C
1?
1<
#920000
0!
02
1+
#925000
1!
12
0+
1F
1G
1H
1E
1'
1(
1)
0B
1:
07
0&
#930000
0!
02
1+
#935000
1!
12
0+
0F
1J
0G
1K
0H
1L
0M
0E
0C
1D
0?
1@
0<
19
0'
0(
0)
1B
0:
17
1&
1C
1?
1<
#940000
0!
02
1+
#945000
1!
12
0+
1F
1G
1H
1E
1'
1(
1)
0B
1:
07
0&
#950000
0!
02
1+
#955000
1!
12
0+
0H
1I
0<
18
0)
1*
#960000
0!
02
1+
#965000
1!
12
0+
0L
1M
09
#970000
0!
02
1+
#975000
1!
12
0+
0I
08
0*
#980000
0!
02
1+
#985000
1!
12
0+
0M
0@
1=
19
#990000
0!
02
1+
#995000
1!
12
0+
0G
1H
1I
0?
1<
18
0(
1)
1*
