oscilator/simulation/qsim/osc.msim.vcd
$comment
	File created using the following command:
		vcd file osc.msim.vcd -direction
$end
$date
	Fri Sep 27 18:12:35 2019
$end
$version
	ModelSim Version 10.1d
$end
$timescale
	1ps
$end
$scope module wait_statement_vlg_vec_tst $end
$var reg 1 ! clk_in $end
$var wire 1 " clk_out $end
$var wire 1 # sampler $end
$scope module i1 $end
$var wire 1 $ gnd $end
$var wire 1 % vcc $end
$var wire 1 & unknown $end
$var tri1 1 ' devclrn $end
$var tri1 1 ( devpor $end
$var tri1 1 ) devoe $end
$var wire 1 * contador[1]~10_combout $end
$var wire 1 + contador[4]~16_combout $end
$var wire 1 , clk_in~combout $end
$var wire 1 - contador[0]~9 $end
$var wire 1 . contador[1]~11 $end
$var wire 1 / contador[2]~13 $end
$var wire 1 0 contador[3]~14_combout $end
$var wire 1 1 contador[3]~15 $end
$var wire 1 2 contador[4]~17 $end
$var wire 1 3 contador[5]~18_combout $end
$var wire 1 4 contador[5]~19 $end
$var wire 1 5 contador[6]~20_combout $end
$var wire 1 6 contador[6]~21 $end
$var wire 1 7 contador[7]~22_combout $end
$var wire 1 8 Equal0~1_combout $end
$var wire 1 9 Equal0~2_combout $end
$var wire 1 : contador[0]~8_combout $end
$var wire 1 ; contador[2]~12_combout $end
$var wire 1 < Equal0~0_combout $end
$var wire 1 = clk_out~0_combout $end
$var wire 1 > clk_out~reg0_regout $end
$var wire 1 ? contador [7] $end
$var wire 1 @ contador [6] $end
$var wire 1 A contador [5] $end
$var wire 1 B contador [4] $end
$var wire 1 C contador [3] $end
$var wire 1 D contador [2] $end
$var wire 1 E contador [1] $end
$var wire 1 F contador [0] $end
$upscope $end
$upscope $end
$enddefinitions $end
#0
$dumpvars
0!
0"
x#
0$
1%
x&
1'
1(
1)
0*
0+
0,
0-
1.
0/
00
11
02
03
14
05
06
07
08
09
1:
0;
0<
0=
0>
0F
0E
0D
0C
0B
0A
0@
0?
$end
#1000
1!
1,
0#
1F
1-
0:
1*
#2000
0!
0,
1#
#3000
1!
1,
0#
0F
1E
0-
1:
0.
0*
1.
1*
1;
0;
#4000
0!
0,
1#
#5000
1!
1,
0#
1F
1-
0:
0.
0*
1;
#6000
0!
0,
1#
#7000
1!
1,
0#
1D
0F
0E
1/
0;
0-
1:
1.
1*
10
0*
0/
1;
00
#8000
0!
0,
1#
#9000
1!
1,
0#
1F
1-
0:
1*
#10000
0!
0,
1#
#11000
1!
1,
0#
0F
1E
0-
1:
0.
0*
1.
1*
1/
0;
0/
1;
10
00
#12000
0!
0,
1#
#13000
1!
1,
0#
1F
1-
0:
0.
0*
1/
0;
10
#14000
0!
0,
1#
#15000
1!
1,
0#
0D
0F
1C
0E
0/
1;
0-
1:
01
00
1.
1*
11
10
0*
1+
0;
0+
#16000
0!
0,
1#
#17000
1!
1,
0#
1F
1-
0:
1*
#18000
0!
0,
1#
#19000
1!
1,
0#
0F
1E
1<
0-
1:
0.
0*
1.
1*
1;
0;
#20000
0!
0,
1#
#21000
1!
1,
0#
1F
0<
1-
0:
0.
0*
1;
#22000
0!
0,
1#
#23000
1!
1,
0#
1D
0F
0E
1/
0;
0-
1:
1.
1*
01
00
0*
0/
1;
1+
11
10
0+
#24000
0!
0,
1#
#25000
1!
1,
0#
1F
1-
0:
1*
#26000
0!
0,
1#
#27000
1!
1,
0#
0F
1E
0-
1:
0.
0*
1.
1*
1/
0;
0/
1;
01
00
11
10
1+
0+
#28000
0!
0,
1#
#29000
1!
1,
0#
1F
1-
0:
0.
0*
1/
0;
01
00
1+
#30000
0!
0,
1#
#31000
1!
1,
0#
0D
0F
0C
1B
0E
0/
1;
0-
1:
11
10
12
0+
1.
1*
00
0*
02
1+
13
0;
03
#32000
0!
0,
1#
#33000
1!
1,
0#
1F
1-
0:
1*
#34000
0!
0,
1#
#35000
1!
1,
0#
0F
1E
0-
1:
0.
0*
1.
1*
1;
0;
#36000
0!
0,
1#
#37000
1!
1,
0#
1F
1-
0:
0.
0*
1;
#38000
0!
0,
1#
#39000
1!
1,
0#
1D
0F
0E
1/
0;
0-
1:
1.
1*
10
0*
0/
1;
00
#40000
0!
0,
1#
#41000
1!
1,
0#
1F
1-
0:
1*
#42000
0!
0,
1#
#43000
1!
1,
0#
0F
1E
0-
1:
0.
0*
1.
1*
1/
0;
0/
1;
10
00
#44000
0!
0,
1#
#45000
1!
1,
0#
1F
1-
0:
0.
0*
1/
0;
10
#46000
0!
0,
1#
#47000
1!
1,
0#
0D
0F
1C
0E
0/
1;
0-
1:
01
00
1.
1*
11
10
0*
12
0+
0;
02
1+
13
03
#48000
0!
0,
1#
#49000
1!
1,
0#
1F
1-
0:
1*
#50000
0!
0,
1#
#51000
1!
1,
0#
0F
1E
1<
0-
1:
0.
0*
1.
1*
1;
0;
#52000
0!
0,
1#
#53000
1!
1,
0#
1F
0<
1-
0:
0.
0*
1;
#54000
0!
0,
1#
#55000
1!
1,
0#
1D
0F
0E
1/
0;
0-
1:
1.
1*
01
00
0*
0/
1;
12
0+
11
10
13
02
1+
03
#56000
0!
0,
1#
#57000
1!
1,
0#
1F
1-
0:
1*
#58000
0!
0,
1#
#59000
1!
1,
0#
0F
1E
0-
1:
0.
0*
1.
1*
1/
0;
0/
1;
01
00
11
10
12
0+
02
1+
13
03
#60000
0!
0,
1#
#61000
1!
1,
0#
1F
1-
0:
0.
0*
1/
0;
01
00
12
0+
13
#62000
0!
0,
1#
#63000
1!
1,
0#
0D
0F
0C
1A
0B
0E
0/
1;
0-
1:
11
10
04
03
02
1+
1.
1*
00
0*
0+
15
14
13
0;
05
#64000
0!
0,
1#
#65000
1!
1,
0#
1F
1-
0:
1*
#66000
0!
0,
1#
#67000
1!
1,
0#
0F
1E
0-
1:
0.
0*
1.
1*
1;
0;
#68000
0!
0,
1#
#69000
1!
1,
0#
1F
1-
0:
0.
0*
1;
#70000
0!
0,
1#
#71000
1!
1,
0#
1D
0F
0E
1/
0;
0-
1:
1.
1*
10
0*
0/
1;
00
#72000
0!
0,
1#
#73000
1!
1,
0#
1F
1-
0:
1*
#74000
0!
0,
1#
#75000
1!
1,
0#
0F
1E
0-
1:
0.
0*
1.
1*
1/
0;
0/
1;
10
00
#76000
0!
0,
1#
#77000
1!
1,
0#
1F
1-
0:
0.
0*
1/
0;
10
#78000
0!
0,
1#
#79000
1!
1,
0#
0D
0F
1C
0E
0/
1;
0-
1:
01
00
1.
1*
11
10
0*
1+
0;
0+
#80000
0!
0,
1#
#81000
1!
1,
0#
1F
1-
0:
1*
#82000
0!
0,
1#
#83000
1!
1,
0#
0F
1E
1<
0-
1:
0.
0*
1.
1*
1;
0;
#84000
0!
0,
1#
#85000
1!
1,
0#
1F
0<
1-
0:
0.
0*
1;
#86000
0!
0,
1#
#87000
1!
1,
0#
1D
0F
0E
1/
0;
0-
1:
1.
1*
01
00
0*
0/
1;
1+
11
10
0+
#88000
0!
0,
1#
#89000
1!
1,
0#
1F
1-
0:
1*
#90000
0!
0,
1#
#91000
1!
1,
0#
0F
1E
0-
1:
0.
0*
1.
1*
1/
0;
0/
1;
01
00
11
10
1+
0+
#92000
0!
0,
1#
#93000
1!
1,
0#
1F
1-
0:
0.
0*
1/
0;
01
00
1+
#94000
0!
0,
1#
#95000
1!
1,
0#
0D
0F
0C
1B
0E
0/
1;
0-
1:
11
10
12
0+
1.
1*
00
0*
02
1+
04
03
0;
14
13
15
05
#96000
0!
0,
1#
#97000
1!
1,
0#
1F
1-
0:
1*
#98000
0!
0,
1#
#99000
1!
1,
0#
0F
1E
0-
1:
0.
0*
1.
1*
1;
0;
#100000
0!
0,
1#
#101000
1!
1,
0#
1F
1-
0:
0.
0*
1;
#102000
0!
0,
1#
#103000
1!
1,
0#
1D
0F
0E
1/
0;
0-
1:
1.
1*
10
0*
0/
1;
00
#104000
0!
0,
1#
#105000
1!
1,
0#
1F
1-
0:
1*
#106000
0!
0,
1#
#107000
1!
1,
0#
0F
1E
0-
1:
0.
0*
1.
1*
1/
0;
0/
1;
10
00
#108000
0!
0,
1#
#109000
1!
1,
0#
1F
1-
0:
0.
0*
1/
0;
10
#110000
0!
0,
1#
#111000
1!
1,
0#
0D
0F
1C
0E
0/
1;
0-
1:
01
00
1.
1*
11
10
0*
12
0+
0;
02
1+
04
03
14
13
15
05
#112000
0!
0,
1#
#113000
1!
1,
0#
1F
1-
0:
1*
#114000
0!
0,
1#
#115000
1!
1,
0#
0F
1E
1<
0-
1:
0.
0*
1.
1*
1;
0;
#116000
0!
0,
1#
#117000
1!
1,
0#
1F
0<
1-
0:
0.
0*
1;
#118000
0!
0,
1#
#119000
1!
1,
0#
1D
0F
0E
1/
0;
0-
1:
1.
1*
01
00
0*
0/
1;
12
0+
11
10
04
03
02
1+
15
14
13
05
#120000
0!
0,
1#
#121000
1!
1,
0#
1F
1-
0:
1*
#122000
0!
0,
1#
#123000
1!
1,
0#
0F
1E
0-
1:
0.
0*
1.
1*
1/
0;
0/
1;
01
00
11
10
12
0+
02
1+
04
03
14
13
15
05
#124000
0!
0,
1#
#125000
1!
1,
0#
1F
1-
0:
0.
0*
1/
0;
01
00
12
0+
04
03
15
#126000
0!
0,
1#
#127000
1!
1,
0#
0D
0F
0C
1@
0A
0B
0E
0/
1;
0-
1:
11
10
16
05
14
13
02
1+
1.
1*
00
0*
0+
17
06
15
03
0;
07
#128000
0!
0,
1#
#129000
1!
1,
0#
1F
1-
0:
1*
#130000
0!
0,
1#
#131000
1!
1,
0#
0F
1E
0-
1:
0.
0*
1.
1*
1;
0;
#132000
0!
0,
1#
#133000
1!
1,
0#
1F
1-
0:
0.
0*
1;
#134000
0!
0,
1#
#135000
1!
1,
0#
1D
0F
0E
1/
0;
0-
1:
1.
1*
10
0*
0/
1;
00
#136000
0!
0,
1#
#137000
1!
1,
0#
1F
1-
0:
1*
#138000
0!
0,
1#
#139000
1!
1,
0#
0F
1E
0-
1:
0.
0*
1.
1*
1/
0;
0/
1;
10
00
#140000
0!
0,
1#
#141000
1!
1,
0#
1F
1-
0:
0.
0*
1/
0;
10
#142000
0!
0,
1#
#143000
1!
1,
0#
0D
0F
1C
0E
0/
1;
0-
1:
01
00
1.
1*
11
10
0*
1+
0;
0+
#144000
0!
0,
1#
#145000
1!
1,
0#
1F
1-
0:
1*
#146000
0!
0,
1#
#147000
1!
1,
0#
0F
1E
1<
0-
1:
0.
0*
1.
1*
1;
0;
#148000
0!
0,
1#
#149000
1!
1,
0#
1F
0<
1-
0:
0.
0*
1;
#150000
0!
0,
1#
#151000
1!
1,
0#
1D
0F
0E
1/
0;
0-
1:
1.
1*
01
00
0*
0/
1;
1+
11
10
0+
#152000
0!
0,
1#
#153000
1!
1,
0#
1F
1-
0:
1*
#154000
0!
0,
1#
#155000
1!
1,
0#
0F
1E
0-
1:
0.
0*
1.
1*
1/
0;
0/
1;
01
00
11
10
1+
0+
#156000
0!
0,
1#
#157000
1!
1,
0#
1F
1-
0:
0.
0*
1/
0;
01
00
1+
#158000
0!
0,
1#
#159000
1!
1,
0#
0D
0F
0C
1B
0E
0/
1;
0-
1:
11
10
12
0+
1.
1*
00
0*
02
1+
13
0;
03
#160000
0!
0,
1#
#161000
1!
1,
0#
1F
1-
0:
1*
#162000
0!
0,
1#
#163000
1!
1,
0#
0F
1E
0-
1:
0.
0*
1.
1*
1;
0;
#164000
0!
0,
1#
#165000
1!
1,
0#
1F
1-
0:
0.
0*
1;
#166000
0!
0,
1#
#167000
1!
1,
0#
1D
0F
0E
1/
0;
0-
1:
1.
1*
10
0*
0/
1;
00
#168000
0!
0,
1#
#169000
1!
1,
0#
1F
1-
0:
1*
#170000
0!
0,
1#
#171000
1!
1,
0#
0F
1E
0-
1:
0.
0*
1.
1*
1/
0;
0/
1;
10
00
#172000
0!
0,
1#
#173000
1!
1,
0#
1F
1-
0:
0.
0*
1/
0;
10
#174000
0!
0,
1#
#175000
1!
1,
0#
0D
0F
1C
0E
0/
1;
0-
1:
01
00
1.
1*
11
10
0*
12
0+
0;
02
1+
13
03
#176000
0!
0,
1#
#177000
1!
1,
0#
1F
1-
0:
1*
#178000
0!
0,
1#
#179000
1!
1,
0#
0F
1E
1<
0-
1:
0.
0*
1.
1*
1;
0;
#180000
0!
0,
1#
#181000
1!
1,
0#
1F
0<
1-
0:
0.
0*
1;
#182000
0!
0,
1#
#183000
1!
1,
0#
1D
0F
0E
1/
0;
0-
1:
1.
1*
01
00
0*
0/
1;
12
0+
11
10
13
02
1+
03
#184000
0!
0,
1#
#185000
1!
1,
0#
1F
1-
0:
1*
#186000
0!
0,
1#
#187000
1!
1,
0#
0F
1E
0-
1:
0.
0*
1.
1*
1/
0;
0/
1;
01
00
11
10
12
0+
02
1+
13
03
#188000
0!
0,
1#
#189000
1!
1,
0#
1F
1-
0:
0.
0*
1/
0;
01
00
12
0+
13
#190000
0!
0,
1#
#191000
1!
1,
0#
0D
0F
0C
1A
0B
0E
0/
1;
0-
1:
11
10
04
03
02
1+
1.
1*
00
0*
0+
16
05
14
13
0;
17
06
15
07
#192000
0!
0,
1#
#193000
1!
1,
0#
1F
1-
0:
1*
#194000
0!
0,
1#
#195000
1!
1,
0#
0F
1E
0-
1:
0.
0*
1.
1*
1;
0;
#196000
0!
0,
1#
#197000
1!
1,
0#
1F
1-
0:
0.
0*
1;
#198000
0!
0,
1#
#199000
1!
1,
0#
1D
0F
0E
1/
0;
0-
1:
1.
1*
10
0*
0/
1;
00
#200000
0!
0,
1#
#201000
1!
1,
0#
1F
1-
0:
1*
#202000
0!
0,
1#
#203000
1!
1,
0#
0F
1E
0-
1:
0.
0*
1.
1*
1/
0;
0/
1;
10
00
#204000
0!
0,
1#
#205000
1!
1,
0#
1F
1-
0:
0.
0*
1/
0;
10
#206000
0!
0,
1#
#207000
1!
1,
0#
0D
0F
1C
0E
0/
1;
0-
1:
01
00
1.
1*
11
10
0*
1+
0;
0+
#208000
0!
0,
1#
#209000
1!
1,
0#
1F
1-
0:
1*
#210000
0!
0,
1#
#211000
1!
1,
0#
0F
1E
1<
0-
1:
0.
0*
1.
1*
1;
0;
#212000
0!
0,
1#
#213000
1!
1,
0#
1F
0<
1-
0:
0.
0*
1;
#214000
0!
0,
1#
#215000
1!
1,
0#
1D
0F
0E
1/
0;
0-
1:
1.
1*
01
00
0*
0/
1;
1+
11
10
0+
#216000
0!
0,
1#
#217000
1!
1,
0#
1F
1-
0:
1*
#218000
0!
0,
1#
#219000
1!
1,
0#
0F
1E
0-
1:
0.
0*
1.
1*
1/
0;
0/
1;
01
00
11
10
1+
0+
#220000
0!
0,
1#
#221000
1!
1,
0#
1F
1-
0:
0.
0*
1/
0;
01
00
1+
#222000
0!
0,
1#
#223000
1!
1,
0#
0D
0F
0C
1B
0E
0/
1;
0-
1:
11
10
12
0+
1.
1*
00
0*
02
1+
04
03
0;
14
13
16
05
06
15
17
07
#224000
0!
0,
1#
#225000
1!
1,
0#
1F
1-
0:
1*
#226000
0!
0,
1#
#227000
1!
1,
0#
0F
1E
0-
1:
0.
0*
1.
1*
1;
0;
#228000
0!
0,
1#
#229000
1!
1,
0#
1F
1-
0:
0.
0*
1;
#230000
0!
0,
1#
#231000
1!
1,
0#
1D
0F
0E
1/
0;
0-
1:
1.
1*
10
0*
0/
1;
00
#232000
0!
0,
1#
#233000
1!
1,
0#
1F
1-
0:
1*
#234000
0!
0,
1#
#235000
1!
1,
0#
0F
1E
0-
1:
0.
0*
1.
1*
1/
0;
0/
1;
10
00
#236000
0!
0,
1#
#237000
1!
1,
0#
1F
1-
0:
0.
0*
1/
0;
10
#238000
0!
0,
1#
#239000
1!
1,
0#
0D
0F
1C
0E
0/
1;
0-
1:
01
00
1.
1*
11
10
0*
12
0+
0;
02
1+
04
03
14
13
16
05
06
15
17
07
#240000
0!
0,
1#
#241000
1!
1,
0#
1F
1-
0:
1*
#242000
0!
0,
1#
#243000
1!
1,
0#
0F
1E
1<
0-
1:
0.
0*
1.
1*
1;
0;
#244000
0!
0,
1#
#245000
1!
1,
0#
1F
0<
1-
0:
0.
0*
1;
#246000
0!
0,
1#
#247000
1!
1,
0#
1D
0F
0E
1/
0;
0-
1:
1.
1*
01
00
0*
0/
1;
12
0+
11
10
04
03
02
1+
16
05
14
13
17
06
15
07
#248000
0!
0,
1#
#249000
1!
1,
0#
1F
1-
0:
1*
#250000
0!
0,
1#
#251000
1!
1,
0#
0F
1E
0-
1:
0.
0*
1.
1*
1/
0;
0/
1;
01
00
11
10
12
0+
02
1+
04
03
14
13
16
05
06
15
17
07
#252000
0!
0,
1#
#253000
1!
1,
0#
1F
1-
0:
0.
0*
1/
0;
01
00
12
0+
04
03
16
05
17
#254000
0!
0,
1#
#255000
1!
1,
0#
0D
0F
0C
1?
0@
0A
0B
0E
0/
1;
0-
1:
11
10
07
06
15
14
13
02
1+
1.
1*
00
0*
0+
17
05
03
0;
#256000
0!
0,
1#
#257000
1!
1,
0#
1F
1-
0:
1*
#258000
0!
0,
1#
#259000
1!
1,
0#
0F
1E
0-
1:
0.
0*
1.
1*
1;
0;
#260000
0!
0,
1#
#261000
1!
1,
0#
1F
1-
0:
0.
0*
1;
#262000
0!
0,
1#
#263000
1!
1,
0#
1D
0F
0E
1/
0;
0-
1:
1.
1*
10
0*
0/
1;
00
#264000
0!
0,
1#
#265000
1!
1,
0#
1F
1-
0:
1*
#266000
0!
0,
1#
#267000
1!
1,
0#
0F
1E
0-
1:
0.
0*
1.
1*
1/
0;
0/
1;
10
00
#268000
0!
0,
1#
#269000
1!
1,
0#
1F
1-
0:
0.
0*
1/
0;
10
#270000
0!
0,
1#
#271000
1!
1,
0#
0D
0F
1C
0E
0/
1;
0-
1:
01
00
1.
1*
11
10
0*
1+
0;
0+
#272000
0!
0,
1#
#273000
1!
1,
0#
1F
1-
0:
1*
#274000
0!
0,
1#
#275000
1!
1,
0#
0F
1E
1<
0-
1:
0.
0*
1.
1*
1;
0;
#276000
0!
0,
1#
#277000
1!
1,
0#
1F
0<
1-
0:
0.
0*
1;
#278000
0!
0,
1#
#279000
1!
1,
0#
1D
0F
0E
1/
0;
0-
1:
1.
1*
01
00
0*
0/
1;
1+
11
10
0+
#280000
0!
0,
1#
#281000
1!
1,
0#
1F
1-
0:
1*
#282000
0!
0,
1#
#283000
1!
1,
0#
0F
1E
0-
1:
0.
0*
1.
1*
1/
0;
0/
1;
01
00
11
10
1+
0+
#284000
0!
0,
1#
#285000
1!
1,
0#
1F
1-
0:
0.
0*
1/
0;
01
00
1+
#286000
0!
0,
1#
#287000
1!
1,
0#
0D
0F
0C
1B
0E
0/
1;
0-
1:
11
10
12
0+
1.
1*
00
0*
02
1+
13
0;
03
#288000
0!
0,
1#
#289000
1!
1,
0#
1F
1-
0:
1*
#290000
0!
0,
1#
#291000
1!
1,
0#
0F
1E
0-
1:
0.
0*
1.
1*
1;
0;
#292000
0!
0,
1#
#293000
1!
1,
0#
1F
1-
0:
0.
0*
1;
#294000
0!
0,
1#
#295000
1!
1,
0#
1D
0F
0E
1/
0;
0-
1:
1.
1*
10
0*
0/
1;
00
#296000
0!
0,
1#
#297000
1!
1,
0#
1F
1-
0:
1*
#298000
0!
0,
1#
#299000
1!
1,
0#
0F
1E
0-
1:
0.
0*
1.
1*
1/
0;
0/
1;
10
00
#300000
0!
0,
1#
#301000
1!
1,
0#
1F
1-
0:
0.
0*
1/
0;
10
#302000
0!
0,
1#
#303000
1!
1,
0#
0D
0F
1C
0E
0/
1;
0-
1:
01
00
1.
1*
11
10
0*
12
0+
0;
02
1+
13
03
#304000
0!
0,
1#
#305000
1!
1,
0#
1F
1-
0:
1*
#306000
0!
0,
1#
#307000
1!
1,
0#
0F
1E
1<
0-
1:
0.
0*
1.
1*
1;
0;
#308000
0!
0,
1#
#309000
1!
1,
0#
1F
0<
1-
0:
0.
0*
1;
#310000
0!
0,
1#
#311000
1!
1,
0#
1D
0F
0E
1/
0;
0-
1:
1.
1*
01
00
0*
0/
1;
12
0+
11
10
13
02
1+
03
#312000
0!
0,
1#
#313000
1!
1,
0#
1F
1-
0:
1*
#314000
0!
0,
1#
#315000
1!
1,
0#
0F
1E
0-
1:
0.
0*
1.
1*
1/
0;
0/
1;
01
00
11
10
12
0+
02
1+
13
03
#316000
0!
0,
1#
#317000
1!
1,
0#
1F
1-
0:
0.
0*
1/
0;
01
00
12
0+
13
#318000
0!
0,
1#
#319000
1!
1,
0#
0D
0F
0C
1A
0B
0E
0/
1;
0-
1:
11
10
04
03
02
1+
1.
1*
00
0*
0+
15
14
13
0;
05
#320000
0!
0,
1#
#321000
1!
1,
0#
1F
1-
0:
1*
#322000
0!
0,
1#
#323000
1!
1,
0#
0F
1E
0-
1:
0.
0*
1.
1*
1;
0;
#324000
0!
0,
1#
#325000
1!
1,
0#
1F
1-
0:
0.
0*
1;
#326000
0!
0,
1#
#327000
1!
1,
0#
1D
0F
0E
1/
0;
0-
1:
1.
1*
10
0*
0/
1;
00
#328000
0!
0,
1#
#329000
1!
1,
0#
1F
1-
0:
1*
#330000
0!
0,
1#
#331000
1!
1,
0#
0F
1E
0-
1:
0.
0*
1.
1*
1/
0;
0/
1;
10
00
#332000
0!
0,
1#
#333000
1!
1,
0#
1F
1-
0:
0.
0*
1/
0;
10
#334000
0!
0,
1#
#335000
1!
1,
0#
0D
0F
1C
0E
0/
1;
0-
1:
01
00
1.
1*
11
10
0*
1+
0;
0+
#336000
0!
0,
1#
#337000
1!
1,
0#
1F
1-
0:
1*
#338000
0!
0,
1#
#339000
1!
1,
0#
0F
1E
1<
0-
1:
0.
0*
1.
1*
1;
0;
#340000
0!
0,
1#
#341000
1!
1,
0#
1F
0<
1-
0:
0.
0*
1;
#342000
0!
0,
1#
#343000
1!
1,
0#
1D
0F
0E
1/
0;
0-
1:
1.
1*
01
00
0*
0/
1;
1+
11
10
0+
#344000
0!
0,
1#
#345000
1!
1,
0#
1F
1-
0:
1*
#346000
0!
0,
1#
#347000
1!
1,
0#
0F
1E
0-
1:
0.
0*
1.
1*
1/
0;
0/
1;
01
00
11
10
1+
0+
#348000
0!
0,
1#
#349000
1!
1,
0#
1F
1-
0:
0.
0*
1/
0;
01
00
1+
#350000
0!
0,
1#
#351000
1!
1,
0#
0D
0F
0C
1B
0E
0/
1;
0-
1:
11
10
12
0+
1.
1*
00
0*
02
1+
04
03
0;
14
13
15
05
#352000
0!
0,
1#
#353000
1!
1,
0#
1F
1-
0:
1*
#354000
0!
0,
1#
#355000
1!
1,
0#
0F
1E
0-
1:
0.
0*
1.
1*
1;
0;
#356000
0!
0,
1#
#357000
1!
1,
0#
1F
1-
0:
0.
0*
1;
#358000
0!
0,
1#
#359000
1!
1,
0#
1D
0F
0E
1/
0;
0-
1:
1.
1*
10
0*
0/
1;
00
#360000
0!
0,
1#
#361000
1!
1,
0#
1F
1-
0:
1*
#362000
0!
0,
1#
#363000
1!
1,
0#
0F
1E
0-
1:
0.
0*
1.
1*
1/
0;
0/
1;
10
00
#364000
0!
0,
1#
#365000
1!
1,
0#
1F
1-
0:
0.
0*
1/
0;
10
#366000
0!
0,
1#
#367000
1!
1,
0#
0D
0F
1C
0E
0/
1;
0-
1:
01
00
1.
1*
11
10
0*
12
0+
0;
02
1+
04
03
14
13
15
05
#368000
0!
0,
1#
#369000
1!
1,
0#
1F
1-
0:
1*
#370000
0!
0,
1#
#371000
1!
1,
0#
0F
1E
1<
0-
1:
0.
0*
1.
1*
1;
0;
#372000
0!
0,
1#
#373000
1!
1,
0#
1F
0<
1-
0:
0.
0*
1;
#374000
0!
0,
1#
#375000
1!
1,
0#
1D
0F
0E
1/
0;
0-
1:
1.
1*
01
00
0*
0/
1;
12
0+
11
10
04
03
02
1+
15
14
13
05
#376000
0!
0,
1#
#377000
1!
1,
0#
1F
1-
0:
1*
#378000
0!
0,
1#
#379000
1!
1,
0#
0F
1E
0-
1:
0.
0*
1.
1*
1/
0;
0/
1;
01
00
11
10
12
0+
02
1+
04
03
14
13
15
05
#380000
0!
0,
1#
#381000
1!
1,
0#
1F
1-
0:
0.
0*
1/
0;
01
00
12
0+
04
03
15
#382000
0!
0,
1#
#383000
1!
1,
0#
0D
0F
0C
1@
0A
0B
0E
0/
1;
0-
1:
11
10
16
05
14
13
02
1+
1.
1*
00
0*
0+
07
06
15
03
0;
17
#384000
0!
0,
1#
#385000
1!
1,
0#
1F
1-
0:
1*
#386000
0!
0,
1#
#387000
1!
1,
0#
0F
1E
0-
1:
0.
0*
1.
1*
1;
0;
#388000
0!
0,
1#
#389000
1!
1,
0#
1F
1-
0:
0.
0*
1;
#390000
0!
0,
1#
#391000
1!
1,
0#
1D
0F
0E
1/
0;
0-
1:
1.
1*
10
0*
0/
1;
00
#392000
0!
0,
1#
#393000
1!
1,
0#
1F
1-
0:
1*
#394000
0!
0,
1#
#395000
1!
1,
0#
0F
1E
0-
1:
0.
0*
1.
1*
1/
0;
0/
1;
10
00
#396000
0!
0,
1#
#397000
1!
1,
0#
1F
1-
0:
0.
0*
1/
0;
10
#398000
0!
0,
1#
#399000
1!
1,
0#
0D
0F
1C
0E
0/
1;
0-
1:
01
00
1.
1*
11
10
0*
1+
0;
0+
#400000
0!
0,
1#
#401000
1!
1,
0#
1F
1-
0:
1*
#402000
0!
0,
1#
#403000
1!
1,
0#
0F
1E
1<
0-
1:
0.
0*
1.
1*
1;
0;
#404000
0!
0,
1#
#405000
1!
1,
0#
1F
0<
1-
0:
0.
0*
1;
#406000
0!
0,
1#
#407000
1!
1,
0#
1D
0F
0E
1/
0;
0-
1:
1.
1*
01
00
0*
0/
1;
1+
11
10
0+
#408000
0!
0,
1#
#409000
1!
1,
0#
1F
1-
0:
1*
#410000
0!
0,
1#
#411000
1!
1,
0#
0F
1E
0-
1:
0.
0*
1.
1*
1/
0;
0/
1;
01
00
11
10
1+
0+
#412000
0!
0,
1#
#413000
1!
1,
0#
1F
1-
0:
0.
0*
1/
0;
01
00
1+
#414000
0!
0,
1#
#415000
1!
1,
0#
0D
0F
0C
1B
0E
0/
1;
0-
1:
11
10
12
0+
1.
1*
00
0*
02
1+
13
0;
03
#416000
0!
0,
1#
#417000
1!
1,
0#
1F
1-
0:
1*
#418000
0!
0,
1#
#419000
1!
1,
0#
0F
1E
0-
1:
0.
0*
1.
1*
1;
0;
#420000
0!
0,
1#
#421000
1!
1,
0#
1F
1-
0:
0.
0*
1;
#422000
0!
0,
1#
#423000
1!
1,
0#
1D
0F
0E
1/
0;
0-
1:
1.
1*
10
0*
0/
1;
00
#424000
0!
0,
1#
#425000
1!
1,
0#
1F
1-
0:
1*
#426000
0!
0,
1#
#427000
1!
1,
0#
0F
1E
0-
1:
0.
0*
1.
1*
1/
0;
0/
1;
10
00
#428000
0!
0,
1#
#429000
1!
1,
0#
1F
1-
0:
0.
0*
1/
0;
10
#430000
0!
0,
1#
#431000
1!
1,
0#
0D
0F
1C
0E
0/
1;
0-
1:
01
00
1.
1*
11
10
0*
12
0+
0;
02
1+
13
03
#432000
0!
0,
1#
#433000
1!
1,
0#
1F
1-
0:
1*
#434000
0!
0,
1#
#435000
1!
1,
0#
0F
1E
1<
0-
1:
0.
0*
1.
1*
1;
0;
#436000
0!
0,
1#
#437000
1!
1,
0#
1F
0<
1-
0:
0.
0*
1;
#438000
0!
0,
1#
#439000
1!
1,
0#
1D
0F
0E
1/
0;
0-
1:
1.
1*
01
00
0*
0/
1;
12
0+
11
10
13
02
1+
03
#440000
0!
0,
1#
#441000
1!
1,
0#
1F
1-
0:
1*
#442000
0!
0,
1#
#443000
1!
1,
0#
0F
1E
0-
1:
0.
0*
1.
1*
1/
0;
0/
1;
01
00
11
10
12
0+
02
1+
13
03
#444000
0!
0,
1#
#445000
1!
1,
0#
1F
1-
0:
0.
0*
1/
0;
01
00
12
0+
13
#446000
0!
0,
1#
#447000
1!
1,
0#
0D
0F
0C
1A
0B
0E
0/
1;
0-
1:
11
10
04
03
02
1+
1.
1*
00
0*
0+
16
05
14
13
0;
07
06
15
17
#448000
0!
0,
1#
#449000
1!
1,
0#
1F
1-
0:
1*
#450000
0!
0,
1#
#451000
1!
1,
0#
0F
1E
0-
1:
0.
0*
1.
1*
1;
0;
#452000
0!
0,
1#
#453000
1!
1,
0#
1F
1-
0:
0.
0*
1;
#454000
0!
0,
1#
#455000
1!
1,
0#
1D
0F
0E
1/
0;
0-
1:
1.
1*
10
0*
0/
1;
00
#456000
0!
0,
1#
#457000
1!
1,
0#
1F
1-
0:
1*
#458000
0!
0,
1#
#459000
1!
1,
0#
0F
1E
0-
1:
0.
0*
1.
1*
1/
0;
0/
1;
10
00
#460000
0!
0,
1#
#461000
1!
1,
0#
1F
1-
0:
0.
0*
1/
0;
10
#462000
0!
0,
1#
#463000
1!
1,
0#
0D
0F
1C
0E
0/
1;
0-
1:
01
00
1.
1*
11
10
0*
1+
0;
0+
#464000
0!
0,
1#
#465000
1!
1,
0#
1F
1-
0:
1*
#466000
0!
0,
1#
#467000
1!
1,
0#
0F
1E
1<
0-
1:
0.
0*
1.
1*
1;
0;
#468000
0!
0,
1#
#469000
1!
1,
0#
1F
0<
1-
0:
0.
0*
1;
#470000
0!
0,
1#
#471000
1!
1,
0#
1D
0F
0E
1/
0;
0-
1:
1.
1*
01
00
0*
0/
1;
1+
11
10
0+
#472000
0!
0,
1#
#473000
1!
1,
0#
1F
1-
0:
1*
#474000
0!
0,
1#
#475000
1!
1,
0#
0F
1E
0-
1:
0.
0*
1.
1*
1/
0;
0/
1;
01
00
11
10
1+
0+
#476000
0!
0,
1#
#477000
1!
1,
0#
1F
1-
0:
0.
0*
1/
0;
01
00
1+
#478000
0!
0,
1#
